\relax 
\providecommand\hyper@newdestlabel[2]{}
\providecommand\HyperFirstAtBeginDocument{\AtBeginDocument}
\HyperFirstAtBeginDocument{\ifx\hyper@anchor\@undefined
\global\let\oldcontentsline\contentsline
\gdef\contentsline#1#2#3#4{\oldcontentsline{#1}{#2}{#3}}
\global\let\oldnewlabel\newlabel
\gdef\newlabel#1#2{\newlabelxx{#1}#2}
\gdef\newlabelxx#1#2#3#4#5#6{\oldnewlabel{#1}{{#2}{#3}}}
\AtEndDocument{\ifx\hyper@anchor\@undefined
\let\contentsline\oldcontentsline
\let\newlabel\oldnewlabel
\fi}
\fi}
\global\let\hyper@last\relax 
\gdef\HyperFirstAtBeginDocument#1{#1}
\providecommand\HyField@AuxAddToFields[1]{}
\providecommand\HyField@AuxAddToCoFields[2]{}
\citation{chaloner1995bayesian}
\Newlabel{ufsc}{a}
\Newlabel{kfupm}{b}
\Newlabel{kaust}{c}
\Newlabel{mycorrespondingauthor}{1}
\@writefile{toc}{\contentsline {section}{\numberline {1}Introduction}{1}{section.1}}
\citation{chaloner1995bayesian}
\citation{long2013fast}
\citation{long2013fast}
\citation{Beck2017fast}
\citation{robbins1951stochastic}
\citation{nesterov1983method}
\citation{o2015adaptive}
\citation{nitanda2016accelerated}
\citation{huan2014gradient}
\citation{huan2013simulation}
\citation{spall1988stochastic}
\@writefile{toc}{\contentsline {section}{\numberline {2}Bayesian experimental design}{3}{section.2}}
\@writefile{toc}{\contentsline {subsection}{\numberline {2.1}Bayesian inference}{3}{subsection.2.1}}
\newlabel{eq:datamodel}{{1}{3}{Bayesian inference}{equation.2.1}{}}
\citation{shannon1948mathematical}
\citation{nikodym1930generalisation}
\citation{robbins1951stochastic,kiefer1959optimum,lai1979adaptive}
\newlabel{eq:bayes}{{2}{4}{Bayesian inference}{equation.2.2}{}}
\@writefile{toc}{\contentsline {subsection}{\numberline {2.2}Expected information gain}{4}{subsection.2.2}}
\newlabel{eq:dkl}{{3}{4}{Expected information gain}{equation.2.3}{}}
\newlabel{eq:infgain}{{4}{4}{Expected information gain}{equation.2.4}{}}
\@writefile{toc}{\contentsline {subsection}{\numberline {2.3}Maximization of the expected information gain}{4}{subsection.2.3}}
\newlabel{eq:infopt}{{5}{4}{Maximization of the expected information gain}{equation.2.5}{}}
\newlabel{eq:fullgradI}{{6}{4}{Maximization of the expected information gain}{equation.2.6}{}}
\citation{robbins1951stochastic}
\citation{polyak1992acceleration}
\citation{robbins1951stochastic}
\citation{polyak1992acceleration}
\citation{nemirovski2005efficient}
\citation{nemirovski2005efficient}
\citation{nemirovski2005efficient}
\@writefile{toc}{\contentsline {section}{\numberline {3}Stochastic gradient methods for design optimization}{5}{section.3}}
\newlabel{sec:Optimization}{{3}{5}{Stochastic gradient methods for design optimization}{section.3}{}}
\@writefile{toc}{\contentsline {subsection}{\numberline {3.1}Stochastic gradient descent for the expected information gain}{5}{subsection.3.1}}
\newlabel{sec:SGD}{{3.1}{5}{Stochastic gradient descent for the expected information gain}{subsection.3.1}{}}
\newlabel{eq:gradbasedopt}{{8}{5}{Stochastic gradient descent for the expected information gain}{equation.3.8}{}}
\newlabel{eq:sgd}{{9}{5}{Stochastic gradient descent for the expected information gain}{equation.3.9}{}}
\citation{cotter2011better,dekel2011optimal}
\citation{johnson2013accelerating}
\citation{schmidt2013minimizing}
\citation{Beck2017fast}
\@writefile{lof}{\contentsline {figure}{\numberline {1}{\ignorespaces Convergences of $\boldsymbol  {\xi }$ (left) and $\mathaccentV {bar}016{\boldsymbol  {\xi }}$ (right) for the quadratic function (Example 1) using different mini-batch sample sizes.}}{6}{figure.1}}
\newlabel{fig:QuadraticMBByCost}{{1}{6}{Convergences of $\bs {\xi }$ (left) and $\bar {\bs {\xi }}$ (right) for the quadratic function (Example 1) using different mini-batch sample sizes}{figure.1}{}}
\@writefile{toc}{\contentsline {subsection}{\numberline {3.2}Stochastic gradient descent with double loop Monte Carlo}{6}{subsection.3.2}}
\newlabel{sec:sgd_dlmc}{{3.2}{6}{Stochastic gradient descent with double loop Monte Carlo}{subsection.3.2}{}}
\newlabel{eq:DLMC}{{11}{6}{Stochastic gradient descent with double loop Monte Carlo}{equation.3.11}{}}
\citation{long2013fast}
\newlabel{eq:sgd_dlmc}{{12}{7}{Stochastic gradient descent with double loop Monte Carlo}{equation.3.12}{}}
\newlabel{eq:SGDLMC}{{13}{7}{Stochastic gradient descent with double loop Monte Carlo}{equation.3.13}{}}
\@writefile{toc}{\contentsline {subsection}{\numberline {3.3}Stochastic gradient descent with Laplace approximation}{7}{subsection.3.3}}
\newlabel{sec:sgd_mcla}{{3.3}{7}{Stochastic gradient descent with Laplace approximation}{subsection.3.3}{}}
\newlabel{eq:posterior}{{14}{7}{Stochastic gradient descent with Laplace approximation}{equation.3.14}{}}
\newlabel{eq:gaussian.posterior}{{15}{7}{Stochastic gradient descent with Laplace approximation}{equation.3.15}{}}
\newlabel{eq:theta}{{16}{7}{Stochastic gradient descent with Laplace approximation}{equation.3.16}{}}
\newlabel{eq:sigmahat}{{17}{7}{Stochastic gradient descent with Laplace approximation}{equation.3.17}{}}
\newlabel{eq:I.Lap}{{18}{8}{Stochastic gradient descent with Laplace approximation}{equation.3.18}{}}
\newlabel{eq:MCLA}{{19}{8}{Stochastic gradient descent with Laplace approximation}{equation.3.19}{}}
\newlabel{eq:sgd_la}{{20}{8}{Stochastic gradient descent with Laplace approximation}{equation.3.20}{}}
\newlabel{eq:sgd_mcla}{{21}{8}{Stochastic gradient descent with Laplace approximation}{equation.3.21}{}}
\newlabel{eq:grad.F.1}{{22}{8}{Stochastic gradient descent with Laplace approximation}{equation.3.22}{}}
\newlabel{eq:grad.Sigma_inv}{{23}{8}{Stochastic gradient descent with Laplace approximation}{equation.3.23}{}}
\newlabel{eq:grad.Sigma}{{24}{8}{Stochastic gradient descent with Laplace approximation}{equation.3.24}{}}
\citation{long2013fast}
\citation{Beck2017fast}
\newlabel{eq:grad.F.2}{{25}{9}{Stochastic gradient descent with Laplace approximation}{equation.3.25}{}}
\citation{Beck2017fast}
\citation{nesterov1983method,nesterov2013introductory,nemirovski2005efficient}
\citation{rumelhart1986learning,o2015adaptive}
\@writefile{toc}{\contentsline {subsection}{\numberline {3.4}Stochastic gradient descent with Monte Carlo Laplace-based importance sampling}{10}{subsection.3.4}}
\newlabel{sec:sgd_dlmcis}{{3.4}{10}{Stochastic gradient descent with Monte Carlo Laplace-based importance sampling}{subsection.3.4}{}}
\newlabel{eq:DLMCIS}{{29}{10}{Stochastic gradient descent with Monte Carlo Laplace-based importance sampling}{equation.3.29}{}}
\newlabel{eq:sgd_is}{{30}{10}{Stochastic gradient descent with Monte Carlo Laplace-based importance sampling}{equation.3.30}{}}
\newlabel{eq:gradis}{{31}{10}{Stochastic gradient descent with Monte Carlo Laplace-based importance sampling}{equation.3.31}{}}
\@writefile{toc}{\contentsline {section}{\numberline {4}Accelerated stochastic gradient descent methods}{10}{section.4}}
\@writefile{toc}{\contentsline {subsection}{\numberline {4.1}Nesterov accelerated gradient descent}{10}{subsection.4.1}}
\newlabel{sec:Nesterov}{{4.1}{10}{Nesterov accelerated gradient descent}{subsection.4.1}{}}
\newlabel{eq:nesterov}{{32}{10}{Nesterov accelerated gradient descent}{equation.4.32}{}}
\citation{nesterov1983method}
\citation{johnson2013accelerating,nitanda2016accelerated,allen2016katyusha}
\citation{cotter2011better}
\citation{o2015adaptive}
\citation{o2015adaptive}
\citation{o2015adaptive}
\citation{su2016differential}
\@writefile{toc}{\contentsline {subsection}{\numberline {4.2}Restart Nesterov method}{11}{subsection.4.2}}
\newlabel{sec:restart}{{4.2}{11}{Restart Nesterov method}{subsection.4.2}{}}
\citation{nesterov2013introductory}
\citation{nesterov2013introductory}
\citation{nesterov2013introductory}
\citation{nesterov2013introductory}
\citation{nemirovski2005efficient}
\citation{nemirovski2005efficient}
\citation{cotter2011better}
\@writefile{lot}{\contentsline {table}{\numberline {1}{\ignorespaces Orders of upper bounds for the regret.}}{12}{table.1}}
\newlabel{tab:convergences}{{1}{12}{Orders of upper bounds for the regret}{table.1}{}}
\@writefile{toc}{\contentsline {section}{\numberline {5}Numerical examples}{12}{section.5}}
\newlabel{sec:ex}{{5}{12}{Numerical examples}{section.5}{}}
\@writefile{toc}{\contentsline {subsection}{\numberline {5.1}Example 1: Analytical stochastic quadratic function}{12}{subsection.5.1}}
\newlabel{sec:ex1}{{5.1}{12}{Example 1: Analytical stochastic quadratic function}{subsection.5.1}{}}
\newlabel{eq:Quadratic}{{37}{12}{Example 1: Analytical stochastic quadratic function}{equation.5.37}{}}
\@writefile{lof}{\contentsline {figure}{\numberline {2}{\ignorespaces (Example 1): Convergence of the methods with standard deviations $\sigma _{\theta }=0.1$ (left) and $\sigma _{\theta }=0.01$(right).}}{13}{figure.2}}
\newlabel{fig:QuadraticStochastic01Conv}{{2}{13}{(Example 1): Convergence of the methods with standard deviations $\sigma _{\theta }=0.1$ (left) and $\sigma _{\theta }=0.01$(right)}{figure.2}{}}
\citation{Beck2017fast}
\citation{nelder1965simplex}
\@writefile{toc}{\contentsline {subsection}{\numberline {5.2}Example 2: OED with quadratic model}{14}{subsection.5.2}}
\newlabel{sec:ex2}{{5.2}{14}{Example 2: OED with quadratic model}{subsection.5.2}{}}
\newlabel{eq:Convex}{{40}{14}{Example 2: OED with quadratic model}{equation.5.40}{}}
\@writefile{toc}{\contentsline {subsubsection}{\numberline {5.2.1}Cost}{14}{subsubsection.5.2.1}}
\@writefile{lot}{\contentsline {table}{\numberline {2}{\ignorespaces Mean NCFM over ten runs required for the estimation of $\boldsymbol  {\xi }^*$.}}{14}{table.2}}
\newlabel{tab:ConvexCosts}{{2}{14}{Mean NCFM over ten runs required for the estimation of $\bs {\xi }^*$}{table.2}{}}
\@writefile{toc}{\contentsline {subsubsection}{\numberline {5.2.2}Descent paths}{15}{subsubsection.5.2.2}}
\@writefile{lof}{\contentsline {figure}{\numberline {3}{\ignorespaces (Example2) Contour fo the expected information gain and optimization descent paths for the ASGD-restart with LA and with MCIS.}}{15}{figure.3}}
\newlabel{fig:ConvexNonLinearModelISLA2}{{3}{15}{(Example2) Contour fo the expected information gain and optimization descent paths for the ASGD-restart with LA and with MCIS}{figure.3}{}}
\citation{timoshenko1921lxvi}
\@writefile{lof}{\contentsline {figure}{\numberline {4}{\ignorespaces (Example 2) Convergence to the optimum in relation to iterations for the ASGD-restart with LA and with MCIS.}}{16}{figure.4}}
\newlabel{fig:ConvexNonLinearModelISLA2Conv}{{4}{16}{(Example 2) Convergence to the optimum in relation to iterations for the ASGD-restart with LA and with MCIS}{figure.4}{}}
\@writefile{lof}{\contentsline {figure}{\numberline {5}{\ignorespaces (Example 2) Convergence to the optimum in relation to model evaluations for the ASGD-restart with LA and with MCIS .}}{16}{figure.5}}
\newlabel{fig:ConvexNonLinearModelISLA2ByCost}{{5}{16}{(Example 2) Convergence to the optimum in relation to model evaluations for the ASGD-restart with LA and with MCIS }{figure.5}{}}
\@writefile{toc}{\contentsline {subsection}{\numberline {5.3}Example 3: Strain gauge positioning on Timoshenko beam}{17}{subsection.5.3}}
\newlabel{sec:ex3}{{5.3}{17}{Example 3: Strain gauge positioning on Timoshenko beam}{subsection.5.3}{}}
\@writefile{lof}{\contentsline {figure}{\numberline {6}{\ignorespaces (Example 3) Geometry of the Timoshenko beam.}}{17}{figure.6}}
\newlabel{fig:TimoGeometry}{{6}{17}{(Example 3) Geometry of the Timoshenko beam}{figure.6}{}}
\newlabel{eq:timo}{{42}{17}{Example 3: Strain gauge positioning on Timoshenko beam}{equation.5.42}{}}
\@writefile{toc}{\contentsline {subsubsection}{\numberline {5.3.1}Bayesian formulation}{17}{subsubsection.5.3.1}}
\newlabel{eq:timo2}{{43}{17}{Bayesian formulation}{equation.5.43}{}}
\@writefile{toc}{\contentsline {subsubsection}{\numberline {5.3.2}Test cases}{18}{subsubsection.5.3.2}}
\@writefile{lot}{\contentsline {table}{\numberline {3}{\ignorespaces (Example 3) Parameters for the Timoshenko beam problem.}}{18}{table.3}}
\newlabel{tab:partimoshenko}{{3}{18}{(Example 3) Parameters for the Timoshenko beam problem}{table.3}{}}
\@writefile{lof}{\contentsline {figure}{\numberline {7}{\ignorespaces (Example 3) From top to bottom, cases 1 to 4 (summarized in Table \ref  {tab:resultstimoshenko}). Expected information gain contours computed with LA and optimization descent paths using SGD, ASGD, ASGD-restart with LA.}}{19}{figure.7}}
\newlabel{fig:Timoshenko}{{7}{19}{(Example 3) From top to bottom, cases 1 to 4 (summarized in Table \ref {tab:resultstimoshenko}). Expected information gain contours computed with LA and optimization descent paths using SGD, ASGD, ASGD-restart with LA}{figure.7}{}}
\citation{somersalo}
\@writefile{lot}{\contentsline {table}{\numberline {4}{\ignorespaces (Example 3) Results from the Timoshenko beam problem.}}{20}{table.4}}
\newlabel{tab:resultstimoshenko}{{4}{20}{(Example 3) Results from the Timoshenko beam problem}{table.4}{}}
\@writefile{lof}{\contentsline {figure}{\numberline {8}{\ignorespaces (Example 3) Convergences for Cases 1 (left) and 2 (right).}}{20}{figure.8}}
\newlabel{fig:timoshenko1conv}{{8}{20}{(Example 3) Convergences for Cases 1 (left) and 2 (right)}{figure.8}{}}
\@writefile{toc}{\contentsline {subsection}{\numberline {5.4}Example 4: Electrical impedance tomography}{20}{subsection.5.4}}
\newlabel{sec:ex4}{{5.4}{20}{Example 4: Electrical impedance tomography}{subsection.5.4}{}}
\@writefile{toc}{\contentsline {subsubsection}{\numberline {5.4.1}Bayesian setting}{20}{subsubsection.5.4.1}}
\@writefile{lof}{\contentsline {figure}{\numberline {9}{\ignorespaces (Example 3) Prior, posterior and optimized posterior pdfs for the Young modulus $E$ and the shear modulus $G$ for cases 1 (top-left), 2 (top-right), 3 (bottom-left), and 4 (bottom-right).}}{21}{figure.9}}
\newlabel{fig:Timoshenkoposterior}{{9}{21}{(Example 3) Prior, posterior and optimized posterior pdfs for the Young modulus $E$ and the shear modulus $G$ for cases 1 (top-left), 2 (top-right), 3 (bottom-left), and 4 (bottom-right)}{figure.9}{}}
\@writefile{lof}{\contentsline {figure}{\numberline {10}{\ignorespaces (Example 4) Experimental configuration for EIT with two plies and four electrodes.}}{22}{figure.10}}
\newlabel{fig:EITsetup}{{10}{22}{(Example 4) Experimental configuration for EIT with two plies and four electrodes}{figure.10}{}}
\@writefile{toc}{\contentsline {subsubsection}{\numberline {5.4.2}Numerical tests for EIT}{23}{subsubsection.5.4.2}}
\@writefile{toc}{\contentsline {paragraph}{Test case 1 (Configuration with four electrodes and one variable)}{23}{section*.1}}
\newlabel{eq:coveit}{{48}{23}{Test case 1 (Configuration with four electrodes and one variable)}{equation.5.48}{}}
\@writefile{lof}{\contentsline {figure}{\numberline {11}{\ignorespaces (Example 4) Current streamlines, optimization path, and pdfs of the initial and optimized configurations for case 1.}}{24}{figure.11}}
\newlabel{fig:EIT4ePlot}{{11}{24}{(Example 4) Current streamlines, optimization path, and pdfs of the initial and optimized configurations for case 1}{figure.11}{}}
\@writefile{toc}{\contentsline {paragraph}{Test case 2 (Configuration with three electrodes and two variables)}{24}{section*.2}}
\@writefile{lof}{\contentsline {figure}{\numberline {12}{\ignorespaces (Example 4) Contour of $\mathcal  {I}_{LA}$ with optimization paths for EIT test case 2.}}{25}{figure.12}}
\newlabel{fig:EIT3e}{{12}{25}{(Example 4) Contour of $\mathcal {I}_{LA}$ with optimization paths for EIT test case 2}{figure.12}{}}
\@writefile{lof}{\contentsline {figure}{\numberline {13}{\ignorespaces (Example 4) Current streamlines for the second guess and pdfs for both the first (bottom-left) and second (bottom-right) guesses.}}{26}{figure.13}}
\newlabel{fig:EIT3e1}{{13}{26}{(Example 4) Current streamlines for the second guess and pdfs for both the first (bottom-left) and second (bottom-right) guesses}{figure.13}{}}
\@writefile{toc}{\contentsline {paragraph}{Test case 3 (Configuration with ten electrodes and ten variables)}{26}{section*.3}}
\@writefile{lof}{\contentsline {figure}{\numberline {14}{\ignorespaces Current streamlines, pdfs of initial and optimized configurations, and convergence to the optimum for case 3.}}{27}{figure.14}}
\newlabel{fig:EIT10e}{{14}{27}{Current streamlines, pdfs of initial and optimized configurations, and convergence to the optimum for case 3}{figure.14}{}}
\bibcite{chaloner1995bayesian}{{1}{}{{}}{{}}}
\bibcite{long2013fast}{{2}{}{{}}{{}}}
\bibcite{Beck2017fast}{{3}{}{{}}{{}}}
\@writefile{lot}{\contentsline {table}{\numberline {5}{\ignorespaces (Example 4) Expected information gain using LA with $N=1000$.}}{28}{table.5}}
\newlabel{tab:ExpInfGainEx4}{{5}{28}{(Example 4) Expected information gain using LA with $N=1000$}{table.5}{}}
\@writefile{toc}{\contentsline {section}{\numberline {6}Conclusion}{28}{section.6}}
\bibcite{robbins1951stochastic}{{4}{}{{}}{{}}}
\bibcite{nesterov1983method}{{5}{}{{}}{{}}}
\bibcite{o2015adaptive}{{6}{}{{}}{{}}}
\bibcite{nitanda2016accelerated}{{7}{}{{}}{{}}}
\bibcite{huan2014gradient}{{8}{}{{}}{{}}}
\bibcite{huan2013simulation}{{9}{}{{}}{{}}}
\bibcite{spall1988stochastic}{{10}{}{{}}{{}}}
\bibcite{shannon1948mathematical}{{11}{}{{}}{{}}}
\bibcite{nikodym1930generalisation}{{12}{}{{}}{{}}}
\bibcite{kiefer1959optimum}{{13}{}{{}}{{}}}
\bibcite{lai1979adaptive}{{14}{}{{}}{{}}}
\bibcite{polyak1992acceleration}{{15}{}{{}}{{}}}
\bibcite{nemirovski2005efficient}{{16}{}{{}}{{}}}
\bibcite{cotter2011better}{{17}{}{{}}{{}}}
\bibcite{dekel2011optimal}{{18}{}{{}}{{}}}
\bibcite{johnson2013accelerating}{{19}{}{{}}{{}}}
\bibcite{schmidt2013minimizing}{{20}{}{{}}{{}}}
\bibcite{nesterov2013introductory}{{21}{}{{}}{{}}}
\bibcite{rumelhart1986learning}{{22}{}{{}}{{}}}
\bibcite{allen2016katyusha}{{23}{}{{}}{{}}}
\bibcite{su2016differential}{{24}{}{{}}{{}}}
\bibcite{nelder1965simplex}{{25}{}{{}}{{}}}
\bibcite{timoshenko1921lxvi}{{26}{}{{}}{{}}}
\bibcite{somersalo}{{27}{}{{}}{{}}}
\providecommand\NAT@force@numbers{}\NAT@force@numbers
