%!PS-Adobe-3.0 EPSF-3.0
%Produced by poppler pdftops version: 0.41.0 (http://poppler.freedesktop.org)
%%Creator: TeX
%%LanguageLevel: 2
%%DocumentSuppliedResources: (atend)
%%BoundingBox: 0 0 186 67
%%HiResBoundingBox: 0 0 186 67
%%DocumentSuppliedResources: (atend)
%%EndComments
%%BeginProlog
%%BeginResource: procset xpdf 3.00 0
%%Copyright: Copyright 1996-2011 Glyph & Cog, LLC
/xpdf 75 dict def xpdf begin
% PDF special state
/pdfDictSize 15 def
/pdfSetup {
  /setpagedevice where {
    pop 2 dict begin
      /Policies 1 dict dup begin /PageSize 6 def end def
      { /Duplex true def } if
    currentdict end setpagedevice
  } {
    pop
  } ifelse
} def
/pdfSetupPaper {
  % Change paper size, but only if different from previous paper size otherwise
  % duplex fails. PLRM specifies a tolerance of 5 pts when matching paper size
  % so we use the same when checking if the size changes.
  /setpagedevice where {
    pop currentpagedevice
    /PageSize known {
      2 copy
      currentpagedevice /PageSize get aload pop
      exch 4 1 roll
      sub abs 5 gt
      3 1 roll
      sub abs 5 gt
      or
    } {
      true
    } ifelse
    {
      2 array astore
      2 dict begin
        /PageSize exch def
        /ImagingBBox null def
      currentdict end
      setpagedevice
    } {
      pop pop
    } ifelse
  } {
    pop
  } ifelse
} def
/pdfStartPage {
  pdfDictSize dict begin
  /pdfFillCS [] def
  /pdfFillXform {} def
  /pdfStrokeCS [] def
  /pdfStrokeXform {} def
  /pdfFill [0] def
  /pdfStroke [0] def
  /pdfFillOP false def
  /pdfStrokeOP false def
  /pdfLastFill false def
  /pdfLastStroke false def
  /pdfTextMat [1 0 0 1 0 0] def
  /pdfFontSize 0 def
  /pdfCharSpacing 0 def
  /pdfTextRender 0 def
  /pdfPatternCS false def
  /pdfTextRise 0 def
  /pdfWordSpacing 0 def
  /pdfHorizScaling 1 def
  /pdfTextClipPath [] def
} def
/pdfEndPage { end } def
% PDF color state
/cs { /pdfFillXform exch def dup /pdfFillCS exch def
      setcolorspace } def
/CS { /pdfStrokeXform exch def dup /pdfStrokeCS exch def
      setcolorspace } def
/sc { pdfLastFill not { pdfFillCS setcolorspace } if
      dup /pdfFill exch def aload pop pdfFillXform setcolor
     /pdfLastFill true def /pdfLastStroke false def } def
/SC { pdfLastStroke not { pdfStrokeCS setcolorspace } if
      dup /pdfStroke exch def aload pop pdfStrokeXform setcolor
     /pdfLastStroke true def /pdfLastFill false def } def
/op { /pdfFillOP exch def
      pdfLastFill { pdfFillOP setoverprint } if } def
/OP { /pdfStrokeOP exch def
      pdfLastStroke { pdfStrokeOP setoverprint } if } def
/fCol {
  pdfLastFill not {
    pdfFillCS setcolorspace
    pdfFill aload pop pdfFillXform setcolor
    pdfFillOP setoverprint
    /pdfLastFill true def /pdfLastStroke false def
  } if
} def
/sCol {
  pdfLastStroke not {
    pdfStrokeCS setcolorspace
    pdfStroke aload pop pdfStrokeXform setcolor
    pdfStrokeOP setoverprint
    /pdfLastStroke true def /pdfLastFill false def
  } if
} def
% build a font
/pdfMakeFont {
  4 3 roll findfont
  4 2 roll matrix scale makefont
  dup length dict begin
    { 1 index /FID ne { def } { pop pop } ifelse } forall
    /Encoding exch def
    currentdict
  end
  definefont pop
} def
/pdfMakeFont16 {
  exch findfont
  dup length dict begin
    { 1 index /FID ne { def } { pop pop } ifelse } forall
    /WMode exch def
    currentdict
  end
  definefont pop
} def
% graphics state operators
/q { gsave pdfDictSize dict begin } def
/Q {
  end grestore
  /pdfLastFill where {
    pop
    pdfLastFill {
      pdfFillOP setoverprint
    } {
      pdfStrokeOP setoverprint
    } ifelse
  } if
} def
/cm { concat } def
/d { setdash } def
/i { setflat } def
/j { setlinejoin } def
/J { setlinecap } def
/M { setmiterlimit } def
/w { setlinewidth } def
% path segment operators
/m { moveto } def
/l { lineto } def
/c { curveto } def
/re { 4 2 roll moveto 1 index 0 rlineto 0 exch rlineto
      neg 0 rlineto closepath } def
/h { closepath } def
% path painting operators
/S { sCol stroke } def
/Sf { fCol stroke } def
/f { fCol fill } def
/f* { fCol eofill } def
% clipping operators
/W { clip newpath } def
/W* { eoclip newpath } def
/Ws { strokepath clip newpath } def
% text state operators
/Tc { /pdfCharSpacing exch def } def
/Tf { dup /pdfFontSize exch def
      dup pdfHorizScaling mul exch matrix scale
      pdfTextMat matrix concatmatrix dup 4 0 put dup 5 0 put
      exch findfont exch makefont setfont } def
/Tr { /pdfTextRender exch def } def
/Tp { /pdfPatternCS exch def } def
/Ts { /pdfTextRise exch def } def
/Tw { /pdfWordSpacing exch def } def
/Tz { /pdfHorizScaling exch def } def
% text positioning operators
/Td { pdfTextMat transform moveto } def
/Tm { /pdfTextMat exch def } def
% text string operators
/xyshow where {
  pop
  /xyshow2 {
    dup length array
    0 2 2 index length 1 sub {
      2 index 1 index 2 copy get 3 1 roll 1 add get
      pdfTextMat dtransform
      4 2 roll 2 copy 6 5 roll put 1 add 3 1 roll dup 4 2 roll put
    } for
    exch pop
    xyshow
  } def
}{
  /xyshow2 {
    currentfont /FontType get 0 eq {
      0 2 3 index length 1 sub {
        currentpoint 4 index 3 index 2 getinterval show moveto
        2 copy get 2 index 3 2 roll 1 add get
        pdfTextMat dtransform rmoveto
      } for
    } {
      0 1 3 index length 1 sub {
        currentpoint 4 index 3 index 1 getinterval show moveto
        2 copy 2 mul get 2 index 3 2 roll 2 mul 1 add get
        pdfTextMat dtransform rmoveto
      } for
    } ifelse
    pop pop
  } def
} ifelse
/cshow where {
  pop
  /xycp {
    0 3 2 roll
    {
      pop pop currentpoint 3 2 roll
      1 string dup 0 4 3 roll put false charpath moveto
      2 copy get 2 index 2 index 1 add get
      pdfTextMat dtransform rmoveto
      2 add
    } exch cshow
    pop pop
  } def
}{
  /xycp {
    currentfont /FontType get 0 eq {
      0 2 3 index length 1 sub {
        currentpoint 4 index 3 index 2 getinterval false charpath moveto
        2 copy get 2 index 3 2 roll 1 add get
        pdfTextMat dtransform rmoveto
      } for
    } {
      0 1 3 index length 1 sub {
        currentpoint 4 index 3 index 1 getinterval false charpath moveto
        2 copy 2 mul get 2 index 3 2 roll 2 mul 1 add get
        pdfTextMat dtransform rmoveto
      } for
    } ifelse
    pop pop
  } def
} ifelse
/Tj {
  fCol
  0 pdfTextRise pdfTextMat dtransform rmoveto
  currentpoint 4 2 roll
  pdfTextRender 1 and 0 eq {
    2 copy xyshow2
  } if
  pdfTextRender 3 and dup 1 eq exch 2 eq or {
    3 index 3 index moveto
    2 copy
    currentfont /FontType get 3 eq { fCol } { sCol } ifelse
    xycp currentpoint stroke moveto
  } if
  pdfTextRender 4 and 0 ne {
    4 2 roll moveto xycp
    /pdfTextClipPath [ pdfTextClipPath aload pop
      {/moveto cvx}
      {/lineto cvx}
      {/curveto cvx}
      {/closepath cvx}
    pathforall ] def
    currentpoint newpath moveto
  } {
    pop pop pop pop
  } ifelse
  0 pdfTextRise neg pdfTextMat dtransform rmoveto
} def
/TJm { 0.001 mul pdfFontSize mul pdfHorizScaling mul neg 0
       pdfTextMat dtransform rmoveto } def
/TJmV { 0.001 mul pdfFontSize mul neg 0 exch
        pdfTextMat dtransform rmoveto } def
/Tclip { pdfTextClipPath cvx exec clip newpath
         /pdfTextClipPath [] def } def
/Tclip* { pdfTextClipPath cvx exec eoclip newpath
         /pdfTextClipPath [] def } def
% Level 2/3 image operators
/pdfImBuf 100 string def
/pdfImStr {
  2 copy exch length lt {
    2 copy get exch 1 add exch
  } {
    ()
  } ifelse
} def
/skipEOD {
  { currentfile pdfImBuf readline
    not { pop exit } if
    (%-EOD-) eq { exit } if } loop
} def
/pdfIm { image skipEOD } def
/pdfImM { fCol imagemask skipEOD } def
/pr { 2 index 2 index 3 2 roll putinterval 4 add } def
/pdfImClip {
  gsave
  0 2 4 index length 1 sub {
    dup 4 index exch 2 copy
    get 5 index div put
    1 add 3 index exch 2 copy
    get 3 index div put
  } for
  pop pop rectclip
} def
/pdfImClipEnd { grestore } def
% shading operators
/colordelta {
  false 0 1 3 index length 1 sub {
    dup 4 index exch get 3 index 3 2 roll get sub abs 0.004 gt {
      pop true
    } if
  } for
  exch pop exch pop
} def
/funcCol { func n array astore } def
/funcSH {
  dup 0 eq {
    true
  } {
    dup 6 eq {
      false
    } {
      4 index 4 index funcCol dup
      6 index 4 index funcCol dup
      3 1 roll colordelta 3 1 roll
      5 index 5 index funcCol dup
      3 1 roll colordelta 3 1 roll
      6 index 8 index funcCol dup
      3 1 roll colordelta 3 1 roll
      colordelta or or or
    } ifelse
  } ifelse
  {
    1 add
    4 index 3 index add 0.5 mul exch 4 index 3 index add 0.5 mul exch
    6 index 6 index 4 index 4 index 4 index funcSH
    2 index 6 index 6 index 4 index 4 index funcSH
    6 index 2 index 4 index 6 index 4 index funcSH
    5 3 roll 3 2 roll funcSH pop pop
  } {
    pop 3 index 2 index add 0.5 mul 3 index  2 index add 0.5 mul
    funcCol sc
    dup 4 index exch mat transform m
    3 index 3 index mat transform l
    1 index 3 index mat transform l
    mat transform l pop pop h f*
  } ifelse
} def
/axialCol {
  dup 0 lt {
    pop t0
  } {
    dup 1 gt {
      pop t1
    } {
      dt mul t0 add
    } ifelse
  } ifelse
  func n array astore
} def
/axialSH {
  dup 0 eq {
    true
  } {
    dup 8 eq {
      false
    } {
      2 index axialCol 2 index axialCol colordelta
    } ifelse
  } ifelse
  {
    1 add 3 1 roll 2 copy add 0.5 mul
    dup 4 3 roll exch 4 index axialSH
    exch 3 2 roll axialSH
  } {
    pop 2 copy add 0.5 mul
    axialCol sc
    exch dup dx mul x0 add exch dy mul y0 add
    3 2 roll dup dx mul x0 add exch dy mul y0 add
    dx abs dy abs ge {
      2 copy yMin sub dy mul dx div add yMin m
      yMax sub dy mul dx div add yMax l
      2 copy yMax sub dy mul dx div add yMax l
      yMin sub dy mul dx div add yMin l
      h f*
    } {
      exch 2 copy xMin sub dx mul dy div add xMin exch m
      xMax sub dx mul dy div add xMax exch l
      exch 2 copy xMax sub dx mul dy div add xMax exch l
      xMin sub dx mul dy div add xMin exch l
      h f*
    } ifelse
  } ifelse
} def
/radialCol {
  dup t0 lt {
    pop t0
  } {
    dup t1 gt {
      pop t1
    } if
  } ifelse
  func n array astore
} def
/radialSH {
  dup 0 eq {
    true
  } {
    dup 8 eq {
      false
    } {
      2 index dt mul t0 add radialCol
      2 index dt mul t0 add radialCol colordelta
    } ifelse
  } ifelse
  {
    1 add 3 1 roll 2 copy add 0.5 mul
    dup 4 3 roll exch 4 index radialSH
    exch 3 2 roll radialSH
  } {
    pop 2 copy add 0.5 mul dt mul t0 add
    radialCol sc
    encl {
      exch dup dx mul x0 add exch dup dy mul y0 add exch dr mul r0 add
      0 360 arc h
      dup dx mul x0 add exch dup dy mul y0 add exch dr mul r0 add
      360 0 arcn h f
    } {
      2 copy
      dup dx mul x0 add exch dup dy mul y0 add exch dr mul r0 add
      a1 a2 arcn
      dup dx mul x0 add exch dup dy mul y0 add exch dr mul r0 add
      a2 a1 arcn h
      dup dx mul x0 add exch dup dy mul y0 add exch dr mul r0 add
      a1 a2 arc
      dup dx mul x0 add exch dup dy mul y0 add exch dr mul r0 add
      a2 a1 arc h f
    } ifelse
  } ifelse
} def
end
%%EndResource
%%EndProlog
%%BeginSetup
xpdf begin
%%EndSetup
pdfStartPage
%%EndPageSetup
[] 0 d
1 i
0 j
0 J
10 M
1 w
/DeviceGray {} cs
[0] sc
/DeviceGray {} CS
[0] SC
false op
false OP
{} settransfer
0 0 186 67 re
W
q
q
[1 0 0 1 -2 -1] cm
q
[1 0 0 1 0 0] cm
0 0 192.755905 70.866142 re
W
q
/DeviceRGB {} CS
[0 0 0] SC
1.089849 w
0 J
0 j
[] 0 d
10 M
q
[1 0 0 -1 0 70.866142] cm
7.305 20.941 125.879 36.312 re
S
Q
1.089849 w
4 M
q
[1 0 0 -1 0 70.866142] cm
133.133 58 m
131.57 60.551 130.766 61.969 129.133 64.59 c
137.094 64.531 l
133.133 58 l
h
S
Q
q
[1 0 0 -1 0 70.866142] cm
7.258 58.156 m
5.695 60.707 4.887 62.125 3.258 64.746 c
11.215 64.688 l
7.258 58.156 l
h
S
Q
1.084145 w
10 M
q
[1 0 0 -1 0 70.866142] cm
155.164 20.785 20.75 36.242 re
S
Q
0.8 w
4 M
q
[1 0 0 -1 0 70.866142] cm
2.898 66.543 m
3.648 65.082 l
S
Q
q
[1 0 0 -1 0 70.866142] cm
6.418 66.492 m
7.168 65.027 l
S
Q
q
[1 0 0 -1 0 70.866142] cm
10.098 66.418 m
10.848 64.957 l
S
Q
q
[1 0 0 -1 0 70.866142] cm
128.648 66.188 m
137.578 66.117 l
S
Q
/DeviceRGB {} cs
[0 0 0] sc
/DeviceRGB {} CS
[0 0 0] SC
0.300628 w
q
[1 0 0 -1 0 70.866142] cm
7.117 11.922 m
7.039 20.238 l
4.168 17.488 l
9.906 17.344 l
7.039 20.258 l
f*
7.117 11.922 m
7.039 20.238 l
4.168 17.488 l
9.906 17.344 l
7.039 20.258 l
S
Q
/DeviceRGB {} cs
[0 0 0] sc
/DeviceRGB {} CS
[0 0 0] SC
0.297905 w
q
[1 0 0 -1 0 70.866142] cm
133.504 12.09 m
133.426 20.25 l
130.555 17.555 l
136.297 17.414 l
133.426 20.27 l
f*
133.504 12.09 m
133.426 20.25 l
130.555 17.555 l
136.297 17.414 l
133.426 20.27 l
S
Q
0.401093 w
q
[1 0 0 -1 0 70.866142] cm
6.945 12.008 m
133.648 12.293 l
S
Q
/DeviceRGB {} cs
[0 0 0] sc
/DeviceRGB {} CS
[0 0 0] SC
0.300628 w
q
[1 0 0 -1 0 70.866142] cm
71.047 11.949 m
70.969 20.266 l
68.098 17.52 l
73.836 17.375 l
70.969 20.285 l
f*
71.047 11.949 m
70.969 20.266 l
68.098 17.52 l
73.836 17.375 l
70.969 20.285 l
S
Q
0.3008 w
[0.6016 0.3008] 0 d
q
[1 0 0 -1 0 70.866142] cm
7.375 33.973 100.355 23.055 re
S
Q
/DeviceRGB {} cs
[1 1 1] sc
/DeviceRGB {} CS
[0 0 0] SC
0.3008 w
[] 0 d
q
[1 0 0 -1 0 70.866142] cm
106.309 32.527 2.75 2.578 re
f
106.309 32.527 2.75 2.578 re
S
Q
/DeviceRGB {} cs
[0 0 0] sc
56.918 43.464 m
56.941 43.495 l
56.941 43.565 l
56.961 43.608 l
56.961 43.651 l
57.008 43.745 l
57.008 43.8 l
57.031 43.851 l
57.055 43.905 l
57.074 43.96 l
57.098 44.015 l
57.121 44.073 l
57.145 44.128 l
57.188 44.186 l
57.211 44.241 l
57.258 44.296 l
57.281 44.351 l
57.324 44.405 l
57.371 44.452 l
57.395 44.503 l
57.438 44.55 l
57.484 44.593 l
57.551 44.632 l
57.598 44.671 l
57.641 44.702 l
57.688 44.718 l
57.734 44.741 l
57.777 44.753 l
57.801 44.765 l
57.824 44.772 l
57.871 44.78 l
57.891 44.788 l
57.938 44.792 l
57.961 44.796 l
58.004 44.8 l
58.051 44.8 l
58.098 44.8 58.367 44.8 58.617 44.651 c
58.301 44.593 58.074 44.311 58.074 44.042 c
58.074 43.862 58.188 43.647 58.504 43.647 c
58.754 43.647 59.094 43.851 59.094 44.304 c
59.094 44.89 58.438 45.05 58.051 45.05 c
57.395 45.05 57.008 44.448 56.871 44.186 c
56.578 44.933 55.965 45.05 55.648 45.05 c
54.469 45.05 53.832 43.589 53.832 43.308 c
53.832 43.194 53.945 43.194 53.969 43.194 c
54.059 43.194 54.082 43.218 54.105 43.319 c
54.492 44.518 55.238 44.8 55.625 44.8 c
55.852 44.8 56.238 44.698 56.238 44.042 c
56.238 43.69 56.055 42.933 55.625 41.354 c
55.441 40.651 55.059 40.179 54.559 40.179 c
54.492 40.179 54.219 40.179 53.992 40.327 c
54.262 40.382 54.512 40.62 54.512 40.936 c
54.512 41.241 54.262 41.331 54.105 41.331 c
53.766 41.331 53.469 41.038 53.469 40.675 c
53.469 40.155 54.035 39.929 54.535 39.929 c
55.285 39.929 55.691 40.722 55.738 40.788 c
55.875 40.37 56.281 39.929 56.941 39.929 c
58.117 39.929 58.754 41.39 58.754 41.671 c
58.754 41.784 58.664 41.784 58.617 41.784 c
58.527 41.784 58.504 41.737 58.48 41.659 c
58.098 40.448 57.324 40.179 56.961 40.179 c
56.531 40.179 56.352 40.538 56.352 40.925 c
56.352 41.171 56.418 41.421 56.531 41.917 c
56.918 43.464 l
h
f*
62.156 43.495 m
62.156 43.62 l
62.133 43.628 l
62.133 43.675 l
62.109 43.679 l
62.109 43.698 l
62.086 43.702 l
62.086 43.706 l
62.066 43.71 l
62.043 43.714 l
62.02 43.714 l
61.996 43.718 l
61.906 43.718 l
61.406 43.222 60.68 43.21 60.363 43.21 c
60.363 42.929 l
60.547 42.929 61.066 42.929 61.52 43.147 c
61.52 39.116 l
61.52 38.854 61.52 38.749 60.727 38.749 c
60.41 38.749 l
60.41 38.468 l
63.242 38.468 l
63.242 38.749 l
62.949 38.749 l
62.156 38.749 62.156 38.854 62.156 39.116 c
62.156 43.495 l
h
f*
186.57 34.749 m
186.594 34.784 l
186.594 34.854 l
186.617 34.886 l
186.617 34.917 l
186.641 34.944 l
186.641 34.999 l
186.66 35.022 l
186.66 35.046 l
186.684 35.069 l
186.707 35.089 l
186.707 35.108 l
186.73 35.128 l
186.754 35.143 l
186.773 35.159 l
186.797 35.175 l
186.844 35.198 l
186.891 35.21 l
186.91 35.218 l
186.934 35.226 l
186.957 35.229 l
186.98 35.229 l
187.004 35.233 l
187.023 35.241 l
187.047 35.241 l
187.117 35.253 l
187.137 35.253 l
187.16 35.257 l
187.184 35.257 l
187.23 35.261 l
187.32 35.261 l
187.344 35.265 l
187.41 35.265 l
187.457 35.268 l
187.523 35.268 l
187.82 35.268 187.91 35.268 187.91 35.491 c
187.91 35.616 187.773 35.616 187.75 35.616 c
184.848 35.616 l
184.758 35.616 184.621 35.616 184.621 35.393 c
184.621 35.268 184.734 35.268 184.938 35.268 c
184.961 35.268 185.188 35.268 185.371 35.245 c
185.574 35.222 185.688 35.21 185.688 35.061 c
185.688 35.018 185.664 34.995 185.641 34.851 c
184.961 32.093 l
181.516 32.093 l
182.172 34.749 l
182.285 35.155 182.309 35.268 183.125 35.268 c
183.418 35.268 183.508 35.268 183.508 35.491 c
183.508 35.616 183.395 35.616 183.352 35.616 c
180.449 35.616 l
180.359 35.616 180.242 35.616 180.242 35.393 c
180.242 35.268 180.336 35.268 180.562 35.268 c
180.586 35.268 180.789 35.268 180.969 35.245 c
181.176 35.222 181.289 35.21 181.289 35.061 c
181.289 35.018 181.266 34.983 181.242 34.851 c
179.723 28.784 l
179.609 28.343 179.586 28.249 178.703 28.249 c
178.496 28.249 178.383 28.249 178.383 28.026 c
178.383 27.901 178.52 27.901 178.543 27.901 c
178.859 27.901 179.676 27.936 179.996 27.936 c
180.223 27.936 180.473 27.925 180.719 27.925 c
180.945 27.925 181.195 27.901 181.445 27.901 c
181.535 27.901 181.672 27.901 181.672 28.128 c
181.672 28.249 181.559 28.249 181.355 28.249 c
180.945 28.249 180.629 28.249 180.629 28.456 c
180.629 28.522 180.652 28.581 180.652 28.647 c
181.422 31.741 l
184.871 31.741 l
184.395 29.866 184.121 28.792 184.098 28.624 c
183.984 28.261 183.758 28.249 183.055 28.249 c
182.898 28.249 182.785 28.249 182.785 28.026 c
182.785 27.901 182.922 27.901 182.941 27.901 c
183.262 27.901 184.055 27.936 184.371 27.936 c
184.621 27.936 184.871 27.925 185.098 27.925 c
185.348 27.925 185.598 27.901 185.844 27.901 c
185.938 27.901 186.074 27.901 186.074 28.128 c
186.074 28.249 185.957 28.249 185.754 28.249 c
185.324 28.249 185.008 28.249 185.008 28.456 c
185.008 28.522 185.027 28.581 185.051 28.647 c
186.57 34.749 l
h
f*
166.918 10.761 m
166.918 10.815 l
166.895 10.819 l
166.895 10.847 l
166.871 10.851 l
166.871 10.862 l
166.848 10.866 l
166.848 10.874 l
166.824 10.874 l
166.824 10.878 l
166.805 10.882 l
166.781 10.886 l
166.508 10.886 165.691 10.792 165.398 10.768 c
165.305 10.761 165.172 10.749 165.172 10.542 c
165.172 10.409 165.285 10.409 165.441 10.409 c
165.988 10.409 166.008 10.331 166.008 10.218 c
166.008 10.14 165.918 9.753 165.852 9.515 c
164.922 5.835 l
164.785 5.268 164.738 5.089 164.738 4.694 c
164.738 3.62 165.352 2.921 166.191 2.921 c
166.191 3.167 l
165.805 3.167 165.418 3.472 165.418 4.311 c
165.418 4.526 165.418 4.737 165.602 5.452 c
165.852 6.487 l
165.918 6.737 165.918 6.761 166.031 6.886 c
166.578 7.62 167.098 7.788 167.371 7.788 c
167.777 7.788 168.098 7.452 168.098 6.726 c
168.098 6.061 167.711 4.761 167.527 4.331 c
167.145 3.573 166.621 3.167 166.191 3.167 c
166.191 2.921 l
167.527 2.921 168.914 4.604 168.914 6.229 c
168.914 7.257 168.301 8.038 167.414 8.038 c
166.895 8.038 166.418 7.71 166.078 7.358 c
166.918 10.761 l
h
f*
70.32 10.163 m
70.34 10.198 l
70.34 10.233 l
70.363 10.268 l
70.363 10.331 l
70.387 10.358 l
70.387 10.386 l
70.406 10.413 l
70.406 10.436 l
70.43 10.456 l
70.453 10.479 l
70.473 10.503 l
70.496 10.518 l
70.516 10.538 l
70.562 10.569 l
70.582 10.585 l
70.629 10.597 l
70.648 10.608 l
70.695 10.62 l
70.715 10.624 l
70.738 10.628 l
70.762 10.636 l
70.781 10.64 l
70.828 10.647 l
70.848 10.651 l
70.891 10.655 l
70.914 10.659 l
70.938 10.659 l
70.98 10.663 l
71.004 10.663 l
71.047 10.667 l
71.07 10.671 l
71.113 10.671 l
71.156 10.675 l
71.223 10.675 l
71.266 10.679 l
71.488 10.679 l
71.82 10.679 71.906 10.679 71.906 10.89 c
71.906 11.018 71.773 11.018 71.73 11.018 c
68.641 11.018 l
68.574 11.018 68.445 11.018 68.445 10.804 c
68.445 10.679 68.531 10.679 68.754 10.679 c
68.773 10.679 68.973 10.679 69.148 10.659 c
69.348 10.636 69.457 10.624 69.457 10.483 c
69.457 10.436 69.438 10.405 69.414 10.276 c
67.938 4.374 l
67.824 3.944 67.805 3.854 66.945 3.854 c
66.746 3.854 66.637 3.854 66.637 3.636 c
66.637 3.515 66.746 3.515 66.945 3.515 c
72.016 3.515 l
72.305 3.515 72.305 3.515 72.371 3.702 c
73.23 6.077 l
73.273 6.198 73.273 6.218 73.273 6.229 c
73.273 6.272 73.254 6.351 73.141 6.351 c
73.055 6.351 73.031 6.296 72.965 6.12 c
72.59 5.108 72.105 3.854 70.207 3.854 c
69.172 3.854 l
69.016 3.854 68.996 3.854 68.93 3.866 c
68.82 3.878 68.797 3.89 68.797 3.976 c
68.797 4.011 68.797 4.03 68.84 4.229 c
70.32 10.163 l
h
f*
75.438 3.726 m
75.637 3.726 l
75.656 3.729 l
75.703 3.733 l
75.746 3.733 l
75.77 3.737 l
75.812 3.737 l
75.855 3.741 l
75.898 3.741 l
75.988 3.753 l
76.078 3.761 l
76.164 3.772 l
76.254 3.784 l
76.34 3.8 l
76.43 3.819 l
76.473 3.827 l
76.52 3.839 l
76.562 3.847 l
76.605 3.862 l
76.648 3.874 l
76.672 3.886 l
77.246 4.085 77.355 4.456 77.355 4.686 c
77.355 5.108 76.938 5.362 76.406 5.362 c
76.406 5.147 l
76.738 5.147 77.023 4.979 77.023 4.686 c
77.023 3.94 75.723 3.94 75.395 3.94 c
75.02 3.94 l
75.328 5.054 76.188 5.147 76.406 5.147 c
76.406 5.362 l
75.48 5.362 74.223 4.655 74.223 3.343 c
74.223 2.561 74.707 1.893 75.613 1.893 c
76.914 1.893 77.531 2.655 77.531 2.765 c
77.531 2.808 77.445 2.893 77.398 2.893 c
77.355 2.893 77.332 2.878 77.27 2.819 c
76.672 2.108 75.77 2.108 75.637 2.108 c
75.172 2.108 74.863 2.417 74.863 3.042 c
74.863 3.147 74.863 3.3 74.953 3.726 c
75.438 3.726 l
h
f*
113.277 27.265 m
113.301 27.296 l
113.301 27.37 l
113.324 27.413 l
113.324 27.456 l
113.348 27.503 l
113.371 27.554 l
113.371 27.608 l
113.395 27.659 l
113.441 27.776 l
113.465 27.831 l
113.512 27.948 l
113.559 28.007 l
113.582 28.065 l
113.629 28.12 l
113.652 28.175 l
113.699 28.229 l
113.746 28.28 l
113.77 28.331 l
113.816 28.378 l
113.863 28.421 l
113.93 28.464 l
113.977 28.503 l
114.023 28.534 l
114.07 28.55 l
114.094 28.565 l
114.117 28.577 l
114.164 28.589 l
114.188 28.601 l
114.211 28.608 l
114.258 28.616 l
114.281 28.624 l
114.328 28.628 l
114.352 28.632 l
114.398 28.636 l
114.445 28.636 l
114.492 28.636 114.77 28.636 115.027 28.483 c
114.699 28.425 114.469 28.136 114.469 27.858 c
114.469 27.671 114.582 27.452 114.91 27.452 c
115.164 27.452 115.516 27.659 115.516 28.124 c
115.516 28.729 114.84 28.89 114.445 28.89 c
113.77 28.89 113.371 28.276 113.23 28.007 c
112.93 28.772 112.301 28.89 111.973 28.89 c
110.762 28.89 110.109 27.393 110.109 27.104 c
110.109 26.987 110.227 26.987 110.25 26.987 c
110.344 26.987 110.367 27.011 110.391 27.112 c
110.785 28.347 111.555 28.636 111.949 28.636 c
112.184 28.636 112.578 28.53 112.578 27.858 c
112.578 27.499 112.395 26.718 111.949 25.097 c
111.766 24.374 111.367 23.89 110.855 23.89 c
110.785 23.89 110.508 23.89 110.273 24.042 c
110.555 24.101 110.809 24.343 110.809 24.667 c
110.809 24.979 110.555 25.073 110.391 25.073 c
110.039 25.073 109.738 24.768 109.738 24.397 c
109.738 23.866 110.32 23.632 110.832 23.632 c
111.602 23.632 112.02 24.444 112.066 24.515 c
112.207 24.085 112.625 23.632 113.301 23.632 c
114.512 23.632 115.164 25.132 115.164 25.421 c
115.164 25.534 115.074 25.534 115.027 25.534 c
114.934 25.534 114.91 25.491 114.887 25.409 c
114.492 24.167 113.699 23.89 113.324 23.89 c
112.883 23.89 112.695 24.261 112.695 24.655 c
112.695 24.909 112.766 25.167 112.883 25.675 c
113.277 27.265 l
h
f*
120.035 23.608 m
119.754 23.608 l
119.73 23.429 119.66 22.948 119.547 22.87 c
119.477 22.819 118.871 22.819 118.754 22.819 c
117.262 22.819 l
118.102 23.577 118.379 23.804 118.871 24.186 c
119.477 24.663 120.035 25.167 120.035 25.94 c
120.035 26.921 119.172 27.522 118.125 27.522 c
117.121 27.522 116.445 26.815 116.445 26.069 c
116.445 25.655 116.797 25.616 116.867 25.616 c
117.078 25.616 117.309 25.753 117.309 26.046 c
117.309 26.19 117.262 26.476 116.82 26.476 c
117.078 27.054 117.637 27.233 118.008 27.233 c
118.824 27.233 119.242 26.597 119.242 25.94 c
119.242 25.233 118.754 24.671 118.473 24.382 c
116.539 22.448 l
116.445 22.374 116.445 22.358 116.445 22.132 c
119.801 22.132 l
120.035 23.608 l
h
f*
71.16 66.917 m
71.16 66.968 l
71.137 66.976 l
71.137 66.999 l
71.113 67.003 l
71.113 67.015 l
71.094 67.015 l
71.094 67.022 l
71.07 67.026 l
71.047 67.026 l
70.938 67.026 70.492 66.585 70.293 66.265 c
70.051 66.862 69.629 67.038 69.277 67.038 c
69.277 66.796 l
69.984 66.796 70.141 65.901 70.141 65.823 c
70.141 65.757 69.543 63.339 69.496 63.296 c
69.344 62.987 68.723 62.28 68.102 62.28 c
67.438 62.28 67.391 63.132 67.391 63.319 c
67.391 63.847 67.723 65.05 67.902 65.515 c
68.258 66.331 68.832 66.796 69.277 66.796 c
69.277 67.038 l
67.969 67.038 66.617 65.405 66.617 63.804 c
66.617 62.722 67.258 62.038 68.078 62.038 c
68.543 62.038 68.988 62.304 69.363 62.702 c
69.277 62.315 68.922 60.823 68.875 60.726 c
68.789 60.417 68.699 60.37 68.078 60.362 c
67.945 60.362 67.836 60.362 67.836 60.14 c
67.836 60.132 67.836 60.018 67.969 60.018 c
70.207 60.018 l
70.273 60.018 70.406 60.018 70.406 60.237 c
70.406 60.362 70.293 60.362 70.117 60.362 c
69.586 60.362 69.586 60.44 69.586 60.538 c
69.586 60.616 69.609 60.679 69.629 60.78 c
71.16 66.917 l
h
f*
75.145 62.663 m
75.145 62.819 l
75.125 62.893 l
75.125 62.968 l
75.102 63.038 l
75.078 63.104 l
75.059 63.171 l
75.035 63.237 l
75.012 63.3 l
74.969 63.354 l
74.945 63.413 l
74.902 63.468 l
74.859 63.518 l
74.836 63.569 l
74.793 63.616 l
74.727 63.663 l
74.68 63.702 l
74.637 63.745 l
74.594 63.78 l
74.527 63.815 l
74.461 63.847 l
74.414 63.874 l
74.348 63.901 l
74.281 63.925 l
74.215 63.944 l
74.172 63.964 l
74.039 63.995 l
73.949 64.003 l
73.883 64.011 l
73.816 64.015 l
73.75 64.015 l
73.75 63.8 l
74.172 63.8 74.527 63.515 74.527 62.94 c
74.527 62.757 74.414 61.991 74.082 61.452 c
73.797 60.995 73.328 60.749 72.93 60.749 c
72.555 60.749 72.176 60.995 72.176 61.604 c
72.176 61.925 72.312 62.679 72.621 63.12 c
72.953 63.601 73.395 63.8 73.75 63.8 c
73.75 64.015 l
72.598 64.015 71.535 62.94 71.535 61.882 c
71.535 61.112 72.09 60.53 72.93 60.53 c
74.039 60.53 75.145 61.55 75.145 62.663 c
h
f*
Q
Q
Q
Q
showpage
%%PageTrailer
pdfEndPage
%%Trailer
end
%%DocumentSuppliedResources:
%%EOF
